Using R and RStudio
…
# or from a website
# ds <- read_csv('http://codeasmanuscript.org/states_data.csv') 
ds

## # A tibble: 50 x 13
##      StateName Population Income Illiteracy LifeExp Murder HSGrad Frost
##          <chr>      <int>  <int>      <dbl>   <dbl>  <dbl>  <dbl> <int>
##  1     Alabama       3615   3624        2.1   69.05   15.1   41.3    20
##  2      Alaska        365   6315        1.5   69.31   11.3   66.7   152
##  3     Arizona       2212   4530        1.8   70.55    7.8   58.1    15
##  4    Arkansas       2110   3378        1.9   70.66   10.1   39.9    65
##  5  California      21198   5114        1.1   71.71   10.3   62.6    20
##  6    Colorado       2541   4884        0.7   72.06    6.8   63.9   166
##  7 Connecticut       3100   5348        1.1   72.48    3.1   56.0   139
##  8    Delaware        579   4809        0.9   70.06    6.2   54.6   103
##  9     Florida       8277   4815        1.3   70.66   10.7   52.6    11
## 10     Georgia       4931   4091        2.0   68.54   13.9   40.6    60
## # ... with 40 more rows, and 5 more variables: Area <int>, Region <chr>,
## #   Division <chr>, Longitude <dbl>, Latitude <dbl>
…
class(ds)

## [1] "tbl_df"     "tbl"        "data.frame"

A list can have any number of data types inside it, including dataframes and more lists.

ds_list <- list(data = ds, number = 1:10, char = c('hi', 'there'))
class(ds_list)

## [1] "list"

ds_list

## $data
## # A tibble: 50 x 13
##      StateName Population Income Illiteracy LifeExp Murder HSGrad Frost
##          <chr>      <int>  <int>      <dbl>   <dbl>  <dbl>  <dbl> <int>
##  1     Alabama       3615   3624        2.1   69.05   15.1   41.3    20
##  2      Alaska        365   6315        1.5   69.31   11.3   66.7   152
##  3     Arizona       2212   4530        1.8   70.55    7.8   58.1    15
##  4    Arkansas       2110   3378        1.9   70.66   10.1   39.9    65
##  5  California      21198   5114        1.1   71.71   10.3   62.6    20
##  6    Colorado       2541   4884        0.7   72.06    6.8   63.9   166
##  7 Connecticut       3100   5348        1.1   72.48    3.1   56.0   139
##  8    Delaware        579   4809        0.9   70.06    6.2   54.6   103
##  9     Florida       8277   4815        1.3   70.66   10.7   52.6    11
## 10     Georgia       4931   4091        2.0   68.54   13.9   40.6    60
## # ... with 40 more rows, and 5 more variables: Area <int>, Region <chr>,
## #   Division <chr>, Longitude <dbl>, Latitude <dbl>
## 
## $number
##  [1]  1  2  3  4  5  6  7  8  9 10
## 
## $char
## [1] "hi"    "there"
…
num[9] # ninth item

## [1] 9

# dataframes and lists can use any of the methods
ds$Income # directly choose the Income column, converts to vector

##  [1] 3624 6315 4530 3378 5114 4884 5348 4809 4815 4091 4963 4119 5107 4458
## [15] 4628 4669 3712 3545 3694 5299 4755 4751 4675 3098 4254 4347 4508 5149
## [29] 4281 5237 3601 4903 3875 5087 4561 3983 4660 4449 4558 3635 4167 3821
## [43] 4188 4022 3907 4701 4864 3617 4468 4566

ds['Income'] # same as above, but keeps as column

## # A tibble: 50 x 1
##    Income
##     <int>
##  1   3624
##  2   6315
##  3   4530
##  4   3378
##  5   5114
##  6   4884
##  7   5348
##  8   4809
##  9   4815
## 10   4091
## # ... with 40 more rows

ds[c('Income', 'Population')] # same as above, but keeps as column

## # A tibble: 50 x 2
##    Income Population
##     <int>      <int>
##  1   3624       3615
##  2   6315        365
##  3   4530       2212
##  4   3378       2110
##  5   5114      21198
##  6   4884       2541
##  7   5348       3100
##  8   4809        579
##  9   4815       8277
## 10   4091       4931
## # ... with 40 more rows

ds[3] # using numbers, again keeping as column

## # A tibble: 50 x 1
##    Income
##     <int>
##  1   3624
##  2   6315
##  3   4530
##  4   3378
##  5   5114
##  6   4884
##  7   5348
##  8   4809
##  9   4815
## 10   4091
## # ... with 40 more rows
…
