Data wrangling using dplyr and tidyr
…
## With:
tbl_df(ds)

## # A tibble: 50 x 13
##      StateName Population Income Illiteracy LifeExp Murder HSGrad Frost
##          <chr>      <dbl>  <dbl>      <dbl>   <dbl>  <dbl>  <dbl> <dbl>
##  1     Alabama       3615   3624        2.1   69.05   15.1   41.3    20
##  2      Alaska        365   6315        1.5   69.31   11.3   66.7   152
##  3     Arizona       2212   4530        1.8   70.55    7.8   58.1    15
##  4    Arkansas       2110   3378        1.9   70.66   10.1   39.9    65
##  5  California      21198   5114        1.1   71.71   10.3   62.6    20
##  6    Colorado       2541   4884        0.7   72.06    6.8   63.9   166
##  7 Connecticut       3100   5348        1.1   72.48    3.1   56.0   139
##  8    Delaware        579   4809        0.9   70.06    6.2   54.6   103
##  9     Florida       8277   4815        1.3   70.66   10.7   52.6    11
## 10     Georgia       4931   4091        2.0   68.54   13.9   40.6    60
## # ... with 40 more rows, and 5 more variables: Area <dbl>, Region <chr>,
## #   Division <chr>, Longitude <dbl>, Latitude <dbl>

## Now put the tbl dataset into a new object
ds2 <- tbl_df(ds)
ds2

## # A tibble: 50 x 13
##      StateName Population Income Illiteracy LifeExp Murder HSGrad Frost
##          <chr>      <dbl>  <dbl>      <dbl>   <dbl>  <dbl>  <dbl> <dbl>
##  1     Alabama       3615   3624        2.1   69.05   15.1   41.3    20
##  2      Alaska        365   6315        1.5   69.31   11.3   66.7   152
##  3     Arizona       2212   4530        1.8   70.55    7.8   58.1    15
##  4    Arkansas       2110   3378        1.9   70.66   10.1   39.9    65
##  5  California      21198   5114        1.1   71.71   10.3   62.6    20
##  6    Colorado       2541   4884        0.7   72.06    6.8   63.9   166
##  7 Connecticut       3100   5348        1.1   72.48    3.1   56.0   139
##  8    Delaware        579   4809        0.9   70.06    6.2   54.6   103
##  9     Florida       8277   4815        1.3   70.66   10.7   52.6    11
## 10     Georgia       4931   4091        2.0   68.54   13.9   40.6    60
## # ... with 40 more rows, and 5 more variables: Area <dbl>, Region <chr>,
## #   Division <chr>, Longitude <dbl>, Latitude <dbl>

Select columns

Often times, you want to select only some of the columns or variables from a dataset. For that we use the select command, which does as it says. Note the use of the %>% operator. This allows you to chain commands together, letting you do more with only a few commands.

ds2 %>% 
    select(Population, Income, Area)

## # A tibble: 50 x 3
##    Population Income   Area
##         <dbl>  <dbl>  <dbl>
##  1       3615   3624  50708
##  2        365   6315 566432
##  3       2212   4530 113417
##  4       2110   3378  51945
##  5      21198   5114 156361
##  6       2541   4884 103766
##  7       3100   5348   4862
##  8        579   4809   1982
##  9       8277   4815  54090
## 10       4931   4091  58073
## # ... with 40 more rows

The real power with using the select() function comes when you combine it with regular expressions (regexp), or rather pattern searching. dplyr has several pattern searching functions, including starts_with(), contains(), and the most powerful matches(). The function matches() uses regexp, which are special commands that use certain, unique syntax for searching for patterns. For example, ^string means that string is the first character, string$ means that string is last character, string|strung searches for either string or strung, etc. regexp syntax are nearly a language to themselves, so use StackOverflow and Google as much as you can!

Ok, so lets say you want to search for variables that have certain patterns:

ds2 %>% 
    select(contains('Pop'), starts_with('Fr'))

## # A tibble: 50 x 2
##    Population Frost
##         <dbl> <dbl>
##  1       3615    20
##  2        365   152
##  3       2212    15
##  4       2110    65
##  5      21198    20
##  6       2541   166
##  7       3100   139
##  8        579   103
##  9       8277    11
## 10       4931    60
## # ... with 40 more rows

## Or more simplified
ds2 %>% 
    select(matches('Pop|Fr'))

## # A tibble: 50 x 2
##    Population Frost
##         <dbl> <dbl>
##  1       3615    20
##  2        365   152
##  3       2212    15
##  4       2110    65
##  5      21198    20
##  6       2541   166
##  7       3100   139
##  8        579   103
##  9       8277    11
## 10       4931    60
## # ... with 40 more rows

You can see that if you have many variables that have a common structure to their name, you can quickly select all those variables by using functions such as matches().

Rename columns

You can rename columns using the rename command (the new name is on the left hand side, so newname = oldname).

ds2 %>% 
    rename(HighSchoolGrad = HSGrad)

## # A tibble: 50 x 13
##      StateName Population Income Illiteracy LifeExp Murder HighSchoolGrad
##          <chr>      <dbl>  <dbl>      <dbl>   <dbl>  <dbl>          <dbl>
##  1     Alabama       3615   3624        2.1   69.05   15.1           41.3
##  2      Alaska        365   6315        1.5   69.31   11.3           66.7
##  3     Arizona       2212   4530        1.8   70.55    7.8           58.1
##  4    Arkansas       2110   3378        1.9   70.66   10.1           39.9
##  5  California      21198   5114        1.1   71.71   10.3           62.6
##  6    Colorado       2541   4884        0.7   72.06    6.8           63.9
##  7 Connecticut       3100   5348        1.1   72.48    3.1           56.0
##  8    Delaware        579   4809        0.9   70.06    6.2           54.6
##  9     Florida       8277   4815        1.3   70.66   10.7           52.6
## 10     Georgia       4931   4091        2.0   68.54   13.9           40.6
## # ... with 40 more rows, and 6 more variables: Frost <dbl>, Area <dbl>,
## #   Region <chr>, Division <chr>, Longitude <dbl>, Latitude <dbl>
…
Create new columns or clean up existing ones

If you want to create a new column, you use the mutate command. The ifelse() command lets you use a condition to have different values depending on the condition.

ds2 %>%
    mutate(Testing = 'yes',
           Rich = ifelse(Income > 5000, 'Yes', 'No')) %>% 
    select(StateName, Population, Income, Rich, Testing)

## # A tibble: 50 x 5
##      StateName Population Income  Rich Testing
##          <chr>      <dbl>  <dbl> <chr>   <chr>
##  1     Alabama       3615   3624    No     yes
##  2      Alaska        365   6315   Yes     yes
##  3     Arizona       2212   4530    No     yes
##  4    Arkansas       2110   3378    No     yes
##  5  California      21198   5114   Yes     yes
##  6    Colorado       2541   4884    No     yes
##  7 Connecticut       3100   5348   Yes     yes
##  8    Delaware        579   4809    No     yes
##  9     Florida       8277   4815    No     yes
## 10     Georgia       4931   4091    No     yes
## # ... with 40 more rows

However, it’s fairly common that you need to do some data janitorial work by cleaning up an existing column. For example, in a dataset with a ‘Sex’ variable, some values had data entry errors in spelling, such as ‘fmale’ when it should be ‘female’. This needs to be fixed and can be done fairly easily in R. So let’s ‘pretend that all words starting with ’G’ in the X (county) column should ‘actually be ’J’ and that all words with an ‘e’ at the end should be removed. ‘For this, we will use the gsub() command within mutate(), which will’globablly substitute a pattern with the replacement.

ds2 %>% 
    select(Region) %>% 
    mutate(
        Region = gsub(pattern = '^S', replacement = 'J', Region),
        Region = gsub(pattern = 't$', replacement = '', Region)
        )

## # A tibble: 50 x 1
##      Region
##       <chr>
##  1    Jouth
##  2      Wes
##  3      Wes
##  4    Jouth
##  5      Wes
##  6      Wes
##  7 Northeas
##  8    Jouth
##  9    Jouth
## 10    Jouth
## # ... with 40 more rows

Notice the ^ and $ characters. Those are special syntax symbols used in regexp commands. We introduced them above, but we’ll quickly go over it again. These special symbols perform certain functions. In this case ^G means for all “G” that are at the start of the string/character, while e$ means for all “e” that are at the end of a string. Or let“s say that all”mont“,”mout“, and”mnt" should actually be “ment”. We can do some cleaning fairly easily here.

ds2 %>% 
    mutate(Region = gsub('Northeast', 'NE', Region, ignore.case = TRUE)) %>% 
    select(Region)

## # A tibble: 50 x 1
##    Region
##     <chr>
##  1  South
##  2   West
##  3   West
##  4  South
##  5   West
##  6   West
##  7     NE
##  8  South
##  9  South
## 10  South
## # ... with 40 more rows
…
Re-organize your data (using tidyr)

To get the data into a nicer and more analyable format, you can use the tidyr package. See what gather does in the code below. Then see what spread does. Note that you can remove a column by having a minus - sign in front of a variable when you use select.

## Compare this:
ds2 %>%
  select(-Division, -Region, -matches('itude$'))

## # A tibble: 50 x 9
##      StateName Population Income Illiteracy LifeExp Murder HSGrad Frost
##          <chr>      <dbl>  <dbl>      <dbl>   <dbl>  <dbl>  <dbl> <dbl>
##  1     Alabama       3615   3624        2.1   69.05   15.1   41.3    20
##  2      Alaska        365   6315        1.5   69.31   11.3   66.7   152
##  3     Arizona       2212   4530        1.8   70.55    7.8   58.1    15
##  4    Arkansas       2110   3378        1.9   70.66   10.1   39.9    65
##  5  California      21198   5114        1.1   71.71   10.3   62.6    20
##  6    Colorado       2541   4884        0.7   72.06    6.8   63.9   166
##  7 Connecticut       3100   5348        1.1   72.48    3.1   56.0   139
##  8    Delaware        579   4809        0.9   70.06    6.2   54.6   103
##  9     Florida       8277   4815        1.3   70.66   10.7   52.6    11
## 10     Georgia       4931   4091        2.0   68.54   13.9   40.6    60
## # ... with 40 more rows, and 1 more variables: Area <dbl>

## With this:
ds2 %>%
  select(-Division, -Region, -matches('itude$')) %>% 
  gather(Measure, Value, -StateName)

## # A tibble: 400 x 3
##      StateName    Measure Value
##          <chr>      <chr> <dbl>
##  1     Alabama Population  3615
##  2      Alaska Population   365
##  3     Arizona Population  2212
##  4    Arkansas Population  2110
##  5  California Population 21198
##  6    Colorado Population  2541
##  7 Connecticut Population  3100
##  8    Delaware Population   579
##  9     Florida Population  8277
## 10     Georgia Population  4931
## # ... with 390 more rows

## And back again:
ds2 %>%
  select(-Division, -Region, -matches('itude$')) %>% 
  gather(Measure, Value, -StateName) %>%
  spread(Measure, Value)

## # A tibble: 50 x 9
##      StateName   Area Frost HSGrad Illiteracy Income LifeExp Murder
##  *       <chr>  <dbl> <dbl>  <dbl>      <dbl>  <dbl>   <dbl>  <dbl>
##  1     Alabama  50708    20   41.3        2.1   3624   69.05   15.1
##  2      Alaska 566432   152   66.7        1.5   6315   69.31   11.3
##  3     Arizona 113417    15   58.1        1.8   4530   70.55    7.8
##  4    Arkansas  51945    65   39.9        1.9   3378   70.66   10.1
##  5  California 156361    20   62.6        1.1   5114   71.71   10.3
##  6    Colorado 103766   166   63.9        0.7   4884   72.06    6.8
##  7 Connecticut   4862   139   56.0        1.1   5348   72.48    3.1
##  8    Delaware   1982   103   54.6        0.9   4809   70.06    6.2
##  9     Florida  54090    11   52.6        1.3   4815   70.66   10.7
## 10     Georgia  58073    60   40.6        2.0   4091   68.54   13.9
## # ... with 40 more rows, and 1 more variables: Population <dbl>
…
